Tech
Alch
Mind
Spirit

------------------------------------------------------------------------
Technology
------------------------------------------------------------------------
                                  ___ Nanotech
                                 |
                  ___ Chemist ___|
                 |               |
                 |               |___ Catalyst
    Machinist ___|             
                 |               ___ Bionic
                 |              |
                 |___ Cyborg ___|
                                |
                                |___ Android
						   
------------------------------------------------------------------------
Alchemy
------------------------------------------------------------------------
                               ___ Summoner
                              |
              ___ Sorcerer ___|
             |                |
             |                |___ Warlock
    Mage ____|             
             |                 ___ Druid
             |                |
             |___ Shaman _____|
                              |
                              |___ Diviner
						   
						   
------------------------------------------------------------------------
Body
------------------------------------------------------------------------
                                ___ Assassin
                               |
                ___ Scout _____|
               |               |
               |               |___ Sentinal
    Warrior ___|             
               |                ___ Knight
               |               |
               |___ Soldier ___|
                               |
                               |___ Warlord
						   
						   
------------------------------------------------------------------------
Spirit
------------------------------------------------------------------------
                            ___ Ninja
                           |
             ___ AAAAAA ___|
            |              |
            |              |___ Grandmaster
    Monk ___|             
            |               ___ Necromancer
            |              |
            |___ Mystic ___|
                           |
                           |___ Enlightened